32775,5694
11730961,3575
1015835,4728
15581189,3392
655402,1801
131118,3535
48,166
48037937,16
65596,3009
65598,4195
983103,1800
131138,7283
196677,2584
72,322
1671241,4969
80,165
2359379,5144
98394,4341
8618077,6267
196707,7282
1638505,1799
108,310
9896047,2497
112,164
327795,3533
103785,6986
120,2467
32890,7400
98441,119
3702923,4067
16831853,3398
2293907,1798
163990,4340
163995,4193
1966237,6436
917662,4444
458913,3531
162,154
295075,5594
327845,7281
65702,4632
168,2466
3276971,2036
176,163
32946,4845
180,3325
32955,2135
98494,2158
4358341,4870
200,321
20452727,215
393421,2215
208,162
262353,3971
229586,4338
131285,5216
229593,4191
3047653,2556
458983,5449
1376493,4443
131313,4961
164082,6497
98553,4631
252,3324
721149,3528
1114366,1735
4325633,4285
264,2464
33033,5297
270,2401
272,161
4260113,1793
1936765,4495
280,2465
917785,5093
4423979,6689
300,3314
622895,3750
304,160
5538101,2933
312,2461
164169,5812
360778,4335
65875,2294
360789,4188
5570917,1788
491878,4724
328042,6781
721259,7277
368,159
983411,2958
378,2400
1671549,1734
120213,3074
10682755,1628
5898629,2547
426374,4331
1114503,3514
392,320
2294155,4442
396,3323
6226319,1782
426387,2873
405,153
408,2457
98716,6030
164255,4630
420,6185
459173,2118
131495,4850
852397,7273
98735,5433
33201,5869
1999283,5100
1245621,3499
65975,5681
440,2463
33212,3088
450,3303
456,2452
464,158
468,3322
66010,6607
2589151,85
7537123,1775
197098,4775
164331,2813
496,157
66033,5885
500,298
33275,272
66045,6989
557566,4326
1344005,7022
404225,5598
520,2460
33292,5990
557583,4174
1507857,3478
26280467,3776
5550,5625
590359,5127
492063,6780
552,2446
3211817,4441
2163242,6201
66092,5980
33327,3004
1114673,4791
2097715,6808
1671734,6244
567,152
623162,4320
229957,3057
33350,5668
98890,7085
588,3292
66125,291
592,156
594,2398
361046,6326
197210,6338
1442399,4757
9503329,1767
9536099,1839
612,3321
1049191,5224
616,2462
1245811,4571
630,5965
2785915,1733
33418,5438
10158731,42
885391,97
656,155
660,6184
1901211,3450
5178013,4673
675,309
680,2456
684,3320
3637933,65
754354,1903
696,2439
700,3313
702,2395
99015,6606
2032329,3414
33495,7337
728,2459
295647,4774
1147619,3024
262885,5375
1999591,2022
744,2431
393965,7288
750,2335
8782579,3839
33524,3153
1508087,7218
760,2451
66297,5356
42599173,181
12124937,1758
262922,6946
780,6181
1639187,5194
4883223,3563
394010,3819
4031261,4712
33579,5792
18809653,2733
99127,281
828,3319
2655037,4031
331731,5756
3244863,6200
99138,6459
66378,6927
623441,4988
2425683,3369
33620,2598
13435741,1748
164703,7138
6095713,6799
5047141,4440
951142,4313
737426,4245
882,3281
1933459,2879
951159,6307
888,2422
3900281,1732
891,151
164738,2566
951171,1862
33670,7000
295815,6337
820105,6779
361361,4626
918,2391
920,2445
924,6183
1016738,2742
10060709,2745
66470,4829
230318,4583
2687919,1664
945,2399
952,2455
8553401,1887
1901501,4152
394174,6568
66495,7205
1016769,4110
951235,4544
968,319
99275,3069
278690,3900
3933137,2660
492499,2978
980,3291
984,2412
990,5964
11731109,1823
1410031,2013
1020,6175
2032639,7037
1026,2386
5964803,4439
427025,5627
4260883,4493
1044,3318
33813,3145
830297,245
1999898,1818
508079,5271
623645,7243
33825,5576
1064,2450
328757,2184
427063,3036
132153,5412
689210,1674
132158,5040
66625,2276
1092,6180
1213511,2051
1100,3312
1213526,4269
41485399,3336
1116,3317
16221281,2644
1125,297
1442926,3630
1279091,265
1140,6165
164983,2220
1144,2458
33915,7426
208444,2590
263302,4905
1160,2438
394383,6945
1170,5961
165025,5557
754851,4464
130975,3185
18285733,183
591015,3818
5801131,3443
1017005,2553
5276851,2758
66748,5972
8258753,239
2426053,6828
66759,4857
492745,4773
918731,90
1344718,4224
1605837,3693
197846,4399
1240,2430
4031705,3622
1242,2380
525538,6523
5768419,230
8389871,3394
34034,7446
1148147,6778
1344759,4029
1288,2444
1300,3311
1508638,3660
125829,5761
296225,3128
34086,7365
1323,308
66861,5910
58098991,24
1332,3316
7800127,4438
1352,318
2688329,6500
4621643,4885
132430,6623
71225,5620
1372,286
4392287,219
1377,149
1380,6150
8521063,6714
5408105,6199
1386,5963
2295147,6684
165230,6458
5211503,3882
6129013,186
99705,4828
165242,6874
558467,4612
1428,6174
787865,7114
591261,6567
28050847,1616
427431,2042
19498411,4216
1452,3259
2622893,6301
9209263,2607
1115569,4896
722361,4567
1470,5525
1476,3315
1480,2421
1485,2397
950521,4816
1496,2454
4742101,3412
8717789,1941
493025,5531
34276,6002
1530,5955
1539,148
1540,6182
656903,99
132618,3929
1115661,4283
460317,6864
1566,2373
230945,7411
2070107,4789
1575,3302
624169,1992
1836595,4662
1596,6164
5155765,3827
3147331,2670
1181257,4360
67146,4561
67155,5183
1624,2437
198237,5039
1971813,3473
3573349,6882
1638,5960
1640,2411
34410,6797
853615,1868
1650,5744
7243379,1727
231035,5337
263810,6740
1672,2449
5740,6018
1674,2365
886414,4106
17729179,6188
1700,3310
2164389,3629
1083047,2790
1710,5945
689843,4772
1716,6178
34485,5283
67270,3983
1736,2429
394953,4904
1740,6129
34510,7324
33785551,1697
1750,2334
1755,2394
67298,7368
4429435,3408
1768,2453
1083121,2104
362235,6432
852267,2543
263958,6265
10553113,4437
100122,6345
4425499,4454
1820,6179
100130,7160
34606,2197
125541,5813
460598,7096
296769,4398
1860,6101
1863,147
821066,6419
1869647,2085
788307,6522
67425,5632
67431,5061
231275,2904
1900,3309
755573,4597
27625,2321
34684,6104
8226691,6246
2688907,1919
1932,6149
7571347,6198
4458389,4922
1345431,6725
657305,6944
231322,6456
2951069,210
1950,5741
36734893,17
493493,7307
1976,2448
5343161,71
100282,7293
133052,6021
985025,2798
2572619,4125
1804231,5145
1998,2356
34782,7197
2024,2443
3377129,175
2028,3215
198645,6622
165886,4697
2820103,4871
2058,2269
133133,5496
1280015,3737
2070,5930
2072,2420
296989,5451
2079,2396
5113889,6478
34850,5570
6391861,3650
2197559,6421
165945,6925
690235,6334
264275,2805
133209,3073
2142,5954
428127,6842
34914,4421
2156,3290
9472111,1722
919677,3894
2178,3248
6752389,4046
1607815,6405
6424717,2638
2132123,6556
2205,3280
100510,4389
559265,4165
13895843,3999
2214,2346
34983,3198
2220,6065
362674,4937
198835,7360
264385,5253
2244,6172
100555,5070
35035,5516
133342,5234
15068197,4005
1706215,3456
86275,5677
35055,5784
13306099,4436
2295,2390
2296,2410
2300,3308
1771774,3410
2310,1608
2312,317
198927,2812
35090,5248
3965315,4010
4884763,3909
166175,3132
67881,2192
2349,146
2132273,4925
6883643,3875
854335,4373
11319,2265
2380,6173
35150,5610
133455,6466
67925,5716
2392,2442
2394,5944
985435,6566
952679,4576
1050985,6890
35178,6670
10586477,1716
100719,3075
2066801,5187
2420,3258
2436,6128
3377543,4748
3246473,2934
14223761,2743
2450,3270
1968533,1947
2457,2393
2460,6020
199082,4986
2475,3301
231855,6541
59771317,2479
100793,3222
3508673,6717
68034,7251
395715,6739
2508,6162
2511,145
1870297,5108
3082729,4932
1804786,1828
4893779,2837
2548,3289
2550,5735
2552,2436
35322,4204
2565,2385
1018381,4548
2574,5958
4950545,3402
166419,2585
756245,6444
2584,2447
100905,3982
231978,3489
2604,6100
44346461,3327
288145,4993
35378,3061
625209,6578
461373,5103
2625,2333
559682,70
789061,5005
133705,5287
100947,7367
10652251,4656
2652,6169
2329187,4287
2660,6163
428655,3523
20843129,2732
1084039,3108
45537047,1687
24971929,1699
330395,5038
559773,2578
395937,5747
920227,6943
232101,5750
494247,7225
2728,2428
68265,5754
2730,7462
199342,6648
330429,7154
2750,2332
35525,3263
101062,2116
35530,7424
1542863,2680
690897,7095
68306,5350
527065,3756
1379035,3815
68324,6067
2790,5881
166634,5019
1182446,4064
723695,7029
4721393,241
1739507,6509
5606135,3431
3377915,3842
264957,6789
35588,5982
1215245,2861
17389357,1829
3607315,3628
20089631,3353
2850,5725
1354886,3415
2860,6177
13404989,3824
35650,5640
76475,5693
2888,316
68425,5698
4688719,3802
2898,5929
2900,3307
35670,6553
27462497,2483
68450,2698
12815209,1709
16976747,4426
2925,3300
4721519,4448
2624369,2963
1054527,7018
3607426,3344
232323,6923
756613,3162
7867273,1951
2460563,7016
2964,6159
101270,6633
3672985,3466
199578,6713
35739,3080
68510,7190
2132902,3579
428978,6771
2997,144
297910,1806
13863863,3574
7998403,3781
3016,2435
658378,6226
527307,4163
166870,6344
5967,2387
3036,6147
35805,7212
36998113,1808
3042,3204
11897831,6197
7703531,6360
1575917,4682
68590,2004
363506,6453
4131833,242
35836,3152
1215487,4512
2788357,6763
68614,5026
429065,6594
1608717,3454
3087,285
134162,2687
494615,4397
3100,3306
1936415,1795
2886689,4967
35875,2278
3108,6064
5980,6143
363562,2026
298034,7105
1313845,6521
4197431,4090
3128,2441
32902213,2501
2591817,1770
6818915,6191
1739881,1925
4560743,1854
1281137,4767
232562,2786
3411067,4713
593021,3164
167042,94
35972,3012
724101,4036
3213,2389
625807,2959
3220,6148
180761,2228
3224,2427
68770,4414
527527,7182
68782,2068
1215665,3921
3250,2329
6229171,4876
3256,2419
3267,307
232645,4825
3771595,3658
5934299,6354
7048421,208
1412327,5309
36075,5618
1084655,6331
134385,4779
199927,103
3321,143
3330,5845
265475,5533
3332,3288
68875,2301
298265,5237
232730,3744
36125,293
68894,5390
462111,4689
3366,5952
5344555,4002
167214,3901
68913,5862
3380,3214
1772855,1736
3388,3257
331075,5560
1346891,4467
200013,5233
1641809,4810
3430,2268
3116399,6748
3444,6019
3450,5710
986493,4133
13438339,51
3465,5962
69003,5787
3468,3160
167314,6949
36244,6006
19139989,3551
4459939,5096
2362789,4880
3496,2440
331177,5257
2100659,2936
2330038,1713
134589,7312
462275,2574
69069,7397
623181,4159
9965009,2853
12488149,3462
1682681,3526
200158,4182
232934,4771
3570,7458
364021,5470
265727,5456
7966211,2628
3588,6144
3591,2384
462346,1918
36366,7302
14061073,6196
3608,2409
429598,4884
2428447,2750
331298,2676
3630,5305
12750385,1618
2887221,1719
396865,7246
1183301,5318
69190,6987
25690723,3383
3675,3269
16158307,1701
3690,5800
265837,258
36465,7447
724594,3891
3700,3305
364154,3727
298623,4985
9309829,4429
3724,3287
757393,5328
3740,6171
200355,4523
1117865,3505
69290,4919
1216171,2967
3762,5942
2395835,6373
3346109,4535
6524617,6274
36556,6046
3706577,3877
397010,3680
462553,5037
36575,5720
2100963,6363
1314542,3474
134895,4403
3825,3299
3828,6126
233206,1990
53939969,2600
628694,3519
3848,2418
3850,5743
1806091,5316
3739405,6248
528143,1996
2363153,2021
3861,2392
2461462,3609
298775,5605
331545,3927
2494235,1882
3876,6155
167739,7378
179075,5670
1019711,6615
3906,5880
3542851,4674
1937221,7097
1281865,4873
3915,2372
69454,5137
21925711,49
134995,5452
429913,2183
1216347,6378
17272673,1692
102245,3169
135014,4619
3944,2434
2396009,4076
2592629,2955
5050241,3627
462722,2665
921475,5536
3978,5949
15699857,40
266133,7232
3990,7444
17050,5658
2002847,3721
4951969,1890
331683,4383
4004,6176
1281974,3873
71339959,2468
167865,4559
561085,6584
69575,3231
528333,7100
263097,5757
10784723,4270
921557,4902
36822,4625
4060,6127
69597,5827
4092,6098
69629,122
4095,5959
4100,3304
299013,6647
593929,5415
21303313,3426
11393027,4086
200725,5587
1773593,244
36890,7199
4125,2331
921633,4503
397358,7060
22450231,2623
102459,5349
823361,4736
3772483,6727
1675333,2031
290145,4147
36946,5463
4180,6161
102486,7055
102487,115
4185,2364
4755549,1646
2363486,3359
36963,300
1773669,4063
36975,5678
4231283,3847
2429045,2531
4216,2426
3379321,4500
4232,315
561290,3599
37004,2926
233618,6342
4250,2325
790685,6513
37030,4423
4264,2408
2986159,5150
4275,3298
1446071,5165
4290,7461
5837009,1953
37076,6076
20943073,1755
594146,3642
1511653,2782
4332,3094
692461,4396
168175,2806
69874,5420
37107,5864
4340,6099
3545129,1789
1514071,3097
4347,2378
4350,5689
725249,3051
2167055,3812
102675,2697
4375,140
299299,5041
1544491,2086
2068781,6903
135470,7110
6230319,1685
69938,3116
168245,7366
4408,2433
102718,7264
5411139,3343
4420,6168
790855,1927
1085773,89
29692241,2622
230115,4367
11662,2259
233818,4395
4446,5939
201058,6956
6903867,2477
659813,5122
299367,5801
135531,2706
102765,7189
135546,6518
4133261,3910
70035,7268
6754709,6471
1682841,1844
4508,3286
1642911,4434
1315237,7046
266662,7120
1315239,4654
1151403,6286
4524,6123
987567,6225
659895,6263
37310,6672
823745,7224
364994,4118
4550,5740
4554,5927
37323,5900
889295,6894
790993,2047
4563,306
1409785,4248
954845,2938
102885,2003
1085926,3495
5280233,3657
692714,3703
22610,7427
397822,1977
37375,2310
168454,7165
2147073,4056
102921,5025
430606,4299
365079,6920
201243,2686
594473,246
4650,5661
7344685,1703
1872431,4762
4662,5844
37444,6041
1282633,1986
30118477,1640
4692,6140
2593367,6744
20615771,30
37468,6109
496223,5341
18387557,6195
4712,2425
234099,2703
561782,6439
4732,3213
529023,6582
37510,5220
6918791,4228
4750,2320
397969,2178
213785,5042
3445403,4931
168609,5368
103075,5644
4035239,3930
70315,2212
399475,2901
11473589,2646
1512118,1837
234175,5669
4802,130
266955,3753
4830,7410
15405791,3786
168674,5130
55419,5462
4836,6095
135915,6652
791282,2654
103155,4413
103156,5970
13538041,3605
70395,4633
365313,7275
103173,2067
4875,2328
1807117,3096
4884,6062
430882,7221
758582,4034
17204,6137
1774409,6764
656183,2170
4940,6158
103246,4629
4395859,2659
332630,6712
11342683,3825
7803,305
2200429,3516
4821877,72
824182,4239
7082873,6234
136059,7173
70525,5653
37758,7089
4995,2355
4998,5515
299915,6635
683501,5373
988057,4592
37791,5931
693158,6831
5032,2417
103341,5389
4789169,3371
2397106,3397
267189,4990
5049,2388
70587,5857
267197,2208
1708993,6938
5060,6146
70602,3544
5070,5085
9442259,6386
3314645,6270
5082,5304
1414127,5189
70642,5059
1676285,6317
889865,4572
6591499,229
37905,4642
40997909,203
136214,2101
5145,2267
6951967,6688
2561065,3808
5166,5799
24319027,3346
5175,3297
955451,5364
5180,6063
267325,3129
70725,5558
6460493,6393
5202,3149
37975,3262
5236,6170
529529,4406
5244,6135
4756609,6699
36115589,1688
15340681,1822
1119371,266
1152141,6502
234639,2910
70805,3125
38038,7432
70818,6877
136367,3220
38073,2223
3665441,2952
5324,274
300237,4181
169169,2128
5336,2432
454181,5416
2561251,6704
824551,4907
16782571,3567
267501,1994
38130,6469
103675,5680
988418,2643
431365,5198
562438,1950
22743,3081
5390,5523
693519,1917
464163,3925
5412,6017
1512745,3733
202027,2227
103730,6604
496947,2675
5445,3247
602485,4978
759115,4255
1021269,4458
431457,4943
2600507,3512
5481,2371
497002,6512
989417,5171
3282307,6801
10392967,6209
202130,6532
3151253,1891
38295,5823
16585361,3990
267674,1933
5535,2345
1414562,58
1086891,3890
1447341,1671
38318,5480
71094,4700
38332,2718
2792387,2073
5576,2407
3085771,2769
5586,5505
1742293,2788
5610,7457
5084651,3851
595441,5167
431607,5111
5624,2416
71162,7382
103935,4918
2266627,4756
5643,2383
4822543,4651
398866,4359
71188,2716
1381913,2087
4003363,6252
333355,5232
2922029,5098
5684,3285
38454,7316
398905,4613
595515,3679
104006,7352
5704,2424
693842,2753
11875,136
1873495,6302
1709659,5308
5733,3278
7050857,3869
104044,2714
5742,5906
5750,2314
1644155,4132
1242989,2046
5772,6059
530062,6836
5775,5742
1316497,6904
136851,5242
5780,3159
14128805,20
300713,3056
38570,7304
693935,5147
5814,5935
4724419,3663
923335,6736
792281,5378
267995,7166
5852,6160
1349341,4785
169694,7123
6166241,1961
5859,2363
661227,3705
235246,4739
45192947,1742
104181,5136
38675,5727
202521,4618
169756,2711
202538,6914
4757297,64
38709,5917
33759,3240
5950,5734
2070335,4487
694083,2664
508898,4295
366415,4584
726869,5036
268119,201
104284,2921
5985,5943
759655,4971
2660203,6400
3610477,2759
202612,190
6006,7460
137085,6960
39458687,1679
1185665,6849
2758535,3633
6050,3237
268203,2961
235445,2795
432055,4818
6076,3284
350455,7156
1447873,1921
6090,7341
71630,7295
38870,5049
38874,7177
6125,296
759795,1739
71668,5993
6138,5878
483575,2900
6150,5580
71687,2251
235543,5472
71706,6952
38950,5565
2988073,4151
6188,6167
38962,5267
7903283,4665
1087541,6939
268345,6655
137275,3133
235586,4910
596037,7059
6498,3083
2562131,6560
192185,4840
6232,2406
7936093,3626
4823135,4047
333925,3063
1316978,1731
361491,4979
6270,7443
39039,5077
3872901,3571
497798,3862
3545229,3358
170126,5170
202895,7192
71825,3189
6292,3256
1050,5745
1218725,2569
5511335,1760
2398377,6213
1053,150
6324,6091
2791613,1956
27489,5511
43724491,2471
1349834,3666
6348,3017
923853,6261
596183,223
432345,6312
1153243,7223
1448161,4901
6370,5520
24877283,4206
6375,2324
15538409,3830
6380,6125
3381487,1971
104690,4588
760058,6403
858363,3723
6396,6014
737817,4723
15145247,1708
6435,5957
1939751,5114
25575,5657
71995,5290
6460,6154
1612093,7093
137547,5848
891219,3641
858458,4452
137566,4959
170338,1936
104811,5419
6510,7216
334191,6627
727415,4549
6525,3296
72075,2807
42277273,3766
39325,3234
563615,5006
3414433,3931
72105,7369
3774901,7035
9116063,3442
3479998,3555
203203,5460
203205,7109
104907,3115
1448402,2632
268755,6572
6612,6114
2234837,4726
563673,7048
11529979,227
6630,7453
1186294,6278
10754551,195
6650,5724
17493,2258
367114,5095
6669,2382
104975,5711
301587,6955
39445,2246
793117,256
6068777,3631
203319,5766
6298177,4703
72261,5807
39494,5435
6728,314
9640535,3333
3349085,3803
39525,5650
6762,5490
8329847,4649
399993,7119
6786,5903
39556,6070
760461,6766
6808,2415
1088153,2968
39585,7333
6820,6097
105125,290
72358,5264
6825,5739
6831,2377
498355,6646
39606,6608
465595,5012
35691199,2612
105154,5377
137924,2919
563914,4250
39627,5833
400078,3522
6658769,2765
957145,6492
6875,139
105183,5849
1213563,4074
1678061,6753
14686963,1765
3087095,3592
39675,2994
596733,1976
203522,2885
269059,3122
6916,6157
695045,4733
2267915,6281
170765,5348
465682,6710
72471,5458
39710,4640
1284899,5092
154077,7263
72501,2130
170810,7054
6975,3295
924482,3855
9968453,3788
531278,6428
6993,2354
2956115,4062
138069,2999
236379,7289
1776481,1957
23272297,4207
236406,3820
22453117,2512
7038,5920
1350537,1893
1612682,3624
203665,4416
859027,2111
7068,6086
7084,6145
465842,6564
302005,4837
7098,5084
159562,4615
2857921,4749
208715,2120
39882,4830
39886,5402
7125,2319
39897,5872
3387215,3413
1907689,4676
7150,5738
138229,2229
6378985,3993
1121285,6838
4955143,4342
236555,5258
2268177,1836
1186835,3938
72726,7126
7192,2423
12999173,3355
15735841,3348
7203,129
8297509,3656
39975,5573
9411631,2844
531505,4953
132275,5616
7220,3093
4103239,4022
7245,5928
7250,2307
7252,3283
7254,5875
203870,6845
194463,5759
1186923,2653
40052,6081
171125,288
203918,7130
21240983,38
7326,5842
466089,6941
50375,2295
1023155,6408
498883,5203
9018565,3342
9379019,3625
138446,7083
2071771,2075
2497759,4506
990437,5327
8723693,4008
105710,3980
7410,7439
269555,5021
6724861,6215
498945,6711
72964,6032
171275,5647
7436,3212
1121549,5196
23207189,1745
105754,5255
40222,5072
400673,5391
73002,1939
728365,6616
138567,7412
7497,3277
1711435,4077
73036,2824
1250,142
2399567,3022
148707,5760
3120469,5090
1416545,6750
40293,3239
1711463,2076
7540,6122
3743095,3797
7544,2405
1645945,6224
7546,2266
7548,6055
138621,5338
269698,6593
400775,5554
3114223,2838
302498,6446
7590,7409
368039,2216
40362,3984
3055019,2760
1213682,2522
105903,2586
7605,3203
662966,4709
40375,2315
2334145,3637
1973699,4247
171462,3525
7623,3246
171475,236
73185,6661
990698,4100
105963,5058
1137235,7026
73205,116
1351166,3844
23125,132
1187329,4596
761349,1959
40455,5852
7688,313
3022345,3848
3578455,4055
138765,4199
171535,5024
269841,6975
2367001,3717
204321,2100
73255,5482
335405,2685
2002481,3095
40508,6001
7749,2344
7750,2299
1089095,4080
7770,7007
3022438,3389
12901781,206
171626,6596
761453,5190
33136241,2721
214291,2179
10891199,3400
990847,2078
73346,4998
204425,5611
7820,6139
2727566,6193
73370,7266
7139269,3902
1908386,3585
761515,2033
7854,7456
7866,5915
171717,6978
433862,6333
335559,4166
106190,6347
564949,5225
2137822,4004
8560357,185
138985,4636
1023729,3457
106227,5814
564995,2048
466697,5231
630539,2079
139035,7134
6528799,4666
73515,5027
466735,2054
7986,2203
40755,7433
2170679,4714
630591,6891
466755,4083
8004,6108
597835,7050
1719663,3418
73554,6599
335699,5427
1253206,6370
31367009,1600
83259,2915
8036,3282
139113,5768
12689261,3612
1285999,4391
270193,2172
8050,5709
237429,5802
2301817,4131
8060,6094
958334,6375
1482627,2642
270215,2063
8073,2376
1777555,6485
171925,2991
401302,6855
270231,2081
73625,2293
8092,3158
2316955,1850
171941,3219
18819,2341
303025,5635
171955,2066
8118,5797
2673539,2859
3415997,4887
40898,3171
8140,6061
9478093,1877
368590,6384
3350479,6555
73689,5245
73695,2069
499681,4832
1056757,96
40959,2336
827421,3816
8228,3255
434217,7030
237614,4950
99567,5820
1548339,3670
729147,2862
135575,5676
73815,6969
21209177,3331
303195,6531
41055,7392
5644387,3621
401511,1932
41070,3765
667667,7252
3612791,3668
8325,3294
8330,5514
2203791,3467
106641,3139
41106,7191
8364,6010
8372,6142
860343,4114
8379,3276
41154,2005
3973319,4274
10657993,1838
172235,5388
336091,235
8415,5951
139490,6870
378235,4407
73964,2596
8436,6050
106743,7381
2760953,2770
663803,5414
8450,3193
6725897,240
41230,7179
99715,5400
8470,5303
598299,4358
106782,3755
401698,3944
2890459,6519
542087,5380
139564,5968
41262,4415
1024309,5010
729399,3922
270655,6963
9806147,3655
782391,4353
8526,5469
139601,2221
74074,6995
336226,7064
8556,6080
1843565,4243
5316979,63
139638,3745
2105719,6488
303485,7256
8575,284
11870599,3648
8584,2414
7292311,1840
205205,6665
252655,2114
5513629,6716
2400671,6728
8610,1609
8613,2370
1024426,3810
2007467,4112
8625,2313
106930,4744
6791609,2666
41405,3180
729554,3422
696787,4983
795093,6835
401882,4892
8670,4865
314534,4179
4989413,6279
2073065,1856
7971317,6798
249067,5476
21021,5517
41470,7331
172546,5200
23437829,205
15999503,3604
8721,2381
41492,5996
2859545,6253
303646,4257
41503,283
1188385,6441
139810,6464
8740,6134
467495,4520
41514,6988
74290,7354
107065,5473
1221185,6288
8778,7442
1483339,5115
8788,262
3514971,1659
959077,2975
41574,4920
148925,5602
5972593,3491
860795,6612
238206,3681
10232447,218
3809927,2669
5841557,2008
369303,4554
565915,6897
378917,5387
3154591,2877
631465,4813
8874,5899
500395,4180
74415,5138
369334,6738
697015,7228
107198,7168
303807,6913
2302658,2621
8918,2263
5382871,4484
8925,5733
8932,6124
1516262,1669
3023603,6883
303862,4973
66233081,168
18457339,1874
1825579,4351
8970,7405
336651,6585
41745,5268
172822,4820
1155865,1916
926497,5202
303918,1741
762671,4796
9009,5956
187187,5286
1286965,4538
9020,6016
1975103,2093
1778498,2511
107338,6657
2368333,2964
9044,6153
828245,2674
172887,4994
664411,3111
336743,111
3646313,4705
533355,3863
828269,98
893809,5372
9075,3236
74613,7421
2204534,1762
762755,6757
336774,3600
172938,6314
2532235,1790
3744653,4455
41876,3087
140182,7158
7218071,3826
9114,5441
4531115,3790
172975,5612
107445,7294
205751,5491
1582009,4940
280053,2909
13902787,3831
74698,2127
1450955,6733
50078671,191
9176,2413
815269,4768
2237411,263
74727,3077
9196,3254
107502,6574
9207,2362
4170751,4930
107525,5697
41990,7418
9225,3293
2466827,5151
1123343,3099
1811485,3889
43953,5483
9250,2290
795685,6909
107559,5825
304175,224
926782,1852
9282,7452
533577,6895
2597965,6474
34317,2337
2827355,6696
9310,5504
52929647,2470
74865,7143
3056755,6217
205942,5164
140415,6931
9348,6005
107653,259
9350,5732
6464647,43
1418395,6321
733381,2169
2991265,3686
173225,3183
1975467,1730
2827442,2500
1057978,4070
9405,5941
730303,3025
5579977,4447
42189,2213
74958,3975
4479865,1663
140505,7284
206045,2894
9438,5301
894179,2088
629629,6973
206074,7280
42237,3079
992525,2690
9486,5871
4039951,73
1459759,199
1910051,4511
9512,2404
42284,2827
107822,5023
6201209,3407
9522,3006
56202,7286
369985,3976
42315,7208
9548,6096
3056977,3672
3286355,3472
566618,6752
21688549,3989
697697,6645
9570,7340
75110,6879
370025,3062
9594,5794
17769851,2485
8201599,1657
3089801,6435
59241,5434
704099,267
9620,6058
19224941,6230
9625,2330
533919,4573
12264871,2645
140714,4387
402866,2016
435638,4082
2336191,3951
42435,5778
763347,4294
16360919,1714
9690,7429
370139,5252
304606,2035
239071,2209
206305,2165
140777,3178
42476,5973
42483,3126
1353205,3484
9724,6166
32515583,2492
1287687,4451
370185,6823
861707,4552
206349,4958
730639,5365
9747,304
18009,2366
239134,7052
8332831,3868
796195,4792
9765,5879
828971,5207
2631218,2610
108086,2065
4302397,2777
4138561,4061
173635,5135
260015,7350
960089,2110
32777819,3329
337502,4363
2238067,4900
337535,4617
42625,2296
9860,6118
4433549,2944
39875,2304
5219997,3554
75429,3142
2172603,2631
9918,5894
1156805,2663
140998,7310
730825,5537
27698903,3768
9945,5948
1255133,2141
1058529,1910
894691,2791
108262,6965
239343,4614
1779441,6277
9975,5723
1451769,6258
1760213,4136
1124097,6303
1812239,7222
42772,3151
10010,7459
829226,1858
206635,4847
6170417,1841
8234809,3795
4040509,4660
862017,3918
272194,4579
862025,2897
42826,5475
22619987,3550
8890211,2727
3090277,84
3516263,220
10092,2929
1451885,7038
2224445,2839
19572593,2615
10108,3092
75645,2587
665482,4290
2172821,3932
10143,3275
10150,5688
2533289,7092
13791559,2833
1583023,5009
206770,7033
75702,6793
1058743,5319
10168,2403
2893757,2029
564213,6906
1877953,1864
10179,2369
403403,4992
305102,6759
141267,2796
9414613,2627
239575,2696
927707,2143
1812446,3792
42978,7296
10212,6044
3614693,1963
2459303,3501
10230,7215
108537,5263
31860737,28
43010,7390
2861062,3352
174087,2911
40019977,3547
10250,2280
174097,5492
3254293,6479
501787,2171
14854177,3779
206886,4040
1222702,6219
600117,3521
2893881,4048
567358,6323
2598977,243
403522,6311
239685,4168
12625991,3341
75850,5535
1255501,5030
403535,5226
43095,5073
75867,2187
731235,3459
2926703,4680
993395,7058
10496123,3581
305283,2884
10374,7438
75922,7319
1550485,4715
698523,6709
12888227,1656
338086,6431
239785,7186
43197,5291
7710911,6273
1059022,3880
7620301,4020
10450,5722
600281,107
436449,4550
1386723,3854
5908715,3357
43245,2818
16656623,216
796917,6427
338169,5007
43263,5912
76038,7236
174363,4606
14535,5934
10540,6090
4041005,2729
105524,6022
2369851,7217
10556,6121
10557,2375
2304323,5306
1616197,3041
1465399,2102
10580,3016
18327913,4042
10602,5866
2009451,3804
207214,4477
534905,7065
24783229,3769
1354111,3042
10625,137
10626,7408
600457,5051
698763,6563
10647,3202
26782109,37
10660,6013
4172201,2875
11905457,6358
1518005,2850
240065,2000
1976777,2781
141778,6631
76245,7383
272855,2146
5998331,1905
10725,5737
28092913,1744
829939,234
764405,2949
174603,5178
160173,2705
1616402,2731
13707797,3618
2271773,4530
109089,5855
10788,6073
272935,5053
11020841,6352
567853,3046
666159,7044
602547,3943
1485365,3640
76342,5345
469567,276
214795,4620
1714765,6729
10830,4645
109142,2148
272986,6774
174685,5418
305762,2951
305767,3047
141933,5259
4565615,3651
600691,5335
10868,6156
109174,5055
10875,2306
10878,5405
10881,2361
993922,6398
3025541,3021
731786,6707
305805,6844
12595651,4428
6982823,2845
329498,7226
341887,3102
515185,7278
1157819,2096
174783,5331
10948,6138
10952,312
142025,5691
43732,2925
305877,7129
207575,3066
1878755,3912
10989,2353
9546481,6190
338675,5634
2501369,3029
174845,3114
1026817,2052
4533001,4235
11020,6113
109330,4194
305942,3532
76570,7170
437019,6617
11050,5729
1026861,4078
176605,5057
207669,7082
174902,3972
109388,5985
240465,6587
7351123,6693
5286745,3363
109417,2238
11115,5938
4467565,6206
568178,2544
502645,6954
11132,3253
76670,6659
12823423,3654
3648385,3588
109446,6861
43911,5788
240526,4189
11154,5081
43923,117
142228,2821
1813407,3849
273325,2903
338865,6516
1518517,6330
764855,3530
109503,225
830414,3500
371665,5313
3910621,6483
109554,3950
1875,141
44022,7267
44030,6990
5097301,1848
11270,5489
437255,3970
7482377,4001
371722,4175
3812369,6827
11284,6093
666655,7118
11310,7336
646323,7220
11316,5999
338997,2049
240695,4410
11322,5835
273470,6496
633919,3163
404547,6592
76874,4842
44109,3197
13184083,3393
339031,5392
6892633,6366
26948111,1641
16460893,2832
76895,2132
240737,247
11375,2327
11385,5926
1820523,2521
11396,6060
502918,4139
3746953,3691
44175,5645
994449,4708
1420445,2542
1416389,3098
535717,2892
44198,5357
23751,5901
273581,5272
7795229,4088
44217,249
3255482,3564
437437,7356
175305,7078
142538,5206
208075,5550
273615,6859
44252,6040
306397,3173
1486047,4099
1617122,3370
601315,4187
11492,3211
109802,7139
44275,5705
3779831,4668
5713145,3782
634106,6308
994555,1975
470270,6228
44289,5828
634114,1863
11532,2830
77077,3223
1125655,4683
2501917,5186
175398,6413
44330,7206
306475,5555
470327,3165
77121,5782
18315,5841
7220551,6387
2044471,4171
240994,4980
11625,2298
2076035,3498
11655,5843
329623,277
77198,2175
23502061,1626
2764177,1964
667029,6526
1781143,4292
4533657,3388
961961,3966
142766,4835
2207161,5152
4238785,6355
503234,4465
110019,4997
11730,7395
142805,104
44506,4858
273885,3948
110055,7265
241129,2218
1879537,4371
2862579,3584
896506,4030
110075,5613
11780,6085
11781,5950
1715727,6254
962065,4468
77330,6967
1551891,6222
863765,6820
11799,2374
929305,4173
44574,7355
601634,6491
6958627,3689
732711,6289
2141737,5002
11830,5083
3354169,6372
20755039,1820
77372,2922
17598389,2514
339521,3172
40204,3011
273999,4603
11858,3226
994903,2871
339549,6898
4992611,6498
5975653,4746
274022,4302
44649,3238
208495,5382
142970,4184
1191547,4763
95325,5543
1552015,3933
13119127,31
77469,5430
2928291,3616
20262569,2633
4402867,4229
116058,4149
306878,6865
569023,2089
29302,5484
3780295,1835
18951881,3770
11979,273
9613007,4701
44764,3086
2993887,7091
44770,5184
12005,128
12006,5888
22261483,1648
1519341,1791
3124979,2540
110331,5775
1879809,6369
1847042,46
1945349,2679
798475,2571
208658,3028
12054,5360
4075291,6743
143143,3168
12075,5708
417074,1804
12090,7211
14200637,3568
2830145,1784
536393,2163
1486667,3952
1257295,4137
1290065,6380
241490,6433
1978205,2652
601953,6854
175972,5967
12136,2402
12138,4864
5517163,4527
56637,5851
208754,6784
44919,5858
3518333,3476
176001,4805
1322893,2881
12177,2343
44950,5633
10432409,4210
44954,5062
110495,5355
754377,4138
962481,6814
12210,7006
896954,6726
10170301,3682
4042687,4124
8794049,6210
77763,2983
12236,6133
8138705,3562
537251,3101
144039,2001
536558,1867
3026933,6700
798721,5116
1159171,233
929798,6482
1421319,3885
1454089,4157
45066,6880
2469901,1908
143375,2281
6107155,1750
176157,2997
110630,6926
372775,5585
4042805,3368
12342,5295
2738185,4433
12350,5719
45125,292
274505,7137
340054,6537
831575,5581
67599,5815
12987,2352
1388645,2762
2338919,1965
1060975,2689
1585265,6306
1585285,1861
700553,2891
14332061,2635
831649,4947
81158,7194
3637151,6473
77996,6024
5222587,4498
4436159,3448
110789,2249
45254,2193
1519817,2957
12495,5513
78039,5884
82251,5826
438495,6411
274659,6545
110825,5652
4567277,3496
12726523,3793
471295,5123
2705329,4720
12546,5790
45325,3261
12558,7404
235011,4557
1552661,4591
1618211,1915
12580,6054
45356,6103
6009133,2766
209209,5276
1334667,2840
4829513,2539
78155,5464
209235,6869
12628,6015
78166,5275
110946,3541
536935,4364
12650,5707
12654,5830
16036207,3771
3617141,4130
1159543,2673
176505,3542
3453307,6420
1847677,254
307582,5104
4632959,2009
143745,3762
12675,3192
1028489,4516
12005773,41
274846,3969
12705,5302
16593649,3611
700843,2105
12716,3157
4846323,2488
12333497,3429
373182,3380
14365121,1830
209346,6293
143811,2912
6468037,1943
45510,6349
242121,5227
78292,3008
438741,2580
471801,4178
340442,4766
1257949,3956
3748322,34
1257962,4232
930291,4716
1356277,3023
176638,6790
143871,7187
111111,6994
78351,5353
2732561,4938
504339,7063
8827423,4211
12834,5860
12844,3210
209457,2704
45619,124
340535,2099
864838,6703
12876,6037
5321303,2658
6369883,6294
78430,7141
55915103,3326
4305505,1724
1258085,4463
12915,5798
209525,3131
5059195,6235
78474,6549
2536079,3888
8401553,2637
12950,5624
1225367,5121
2710981,1794
111265,4856
3420835,3372
1389223,4811
45747,5916
406203,4145
602823,4891
3683017,4923
13005,3148
438991,3119
13034,2254
2241265,4028
45815,5510
78585,4999
1028859,6730
193325,5607
78625,2285
13090,7455
209715,6463
13110,7375
47204489,2611
45885,7372
406334,4730
6271811,1662
111435,7353
242515,4915
1127253,3913
1422169,4727
13156,6141
242535,6900
308074,4690
2372461,4108
13167,5940
111476,2822
45942,7171
62271,5832
13182,2137
177023,2185
19870597,1763
3453839,2020
177045,6875
144279,5774
6534047,2537
3093409,1946
460955,4801
406445,2090
144305,5424
46002,6660
78771,5217
1192895,4252
1586126,4012
3093459,3828
2831323,4536
46046,7398
1389535,3676
2405347,4669
373737,3751
7517179,2648
701437,2162
13310,2202
13311,2368
537602,7024
3027973,4893
7877647,1846
1061905,3953
5157911,6800
13340,6107
144417,4411
3453987,2620
78884,5971
78897,4851
46137,2133
40817,125
13377,2262
2956811,7020
78925,5575
13398,7339
7058519,3490
2274393,1668
1356901,4926
4502641,3695
308357,2225
13448,311
19805323,1707
13455,5923
570515,5117
13468,6057
13475,3268
210125,287
111826,7379
13055191,1886
13530,6678
767195,6863
7451873,3411
2667747,2510
275684,178
963815,4786
564775,5546
472305,3707
64992503,14
13566,7428
177422,7233
406802,2555
144670,6916
2831647,4072
3192101,5142
111910,4560
1094951,4982
111925,3228
46398,6968
406847,3055
505161,2699
5551441,4009
116963,2230
2798939,4291
341341,5212
210273,7157
13671,3273
1007165,2014
570741,4545
521110,3424
931209,3934
422807,4836
243089,3216
374187,7244
734638,4664
112047,2126
13764,6029
341446,1870
2733511,5106
1062347,1604
94352849,167
3585491,3807
5009837,4054
13794,5285
472549,4616
898535,3957
1750507,5159
13804,6117
505325,5547
374255,4740
8238581,2536
46585,2198
144894,6434
17905151,3560
669185,1931
79365,6996
5916,6119
1881607,7021
1488403,1966
144925,5648
1357345,6817
1979939,2030
13875,2289
2209339,2780
5715523,6472
177735,4698
603725,5538
3159637,2858
369265,5033
1390173,1851
79458,6624
13923,5947
1121894,1845
1095274,4435
357309,2701
767602,6287
13153907,6232
13940,6009
439930,6264
276094,6336
13965,5503
472719,7115
83391,4637
2340503,2878
46748,6069
833187,2763
636585,3643
79534,7362
308913,5163
35305141,1680
243386,6921
10204859,3772
14014,5518
3316411,3883
14022,5785
14025,5731
5748431,3710
1586899,88
14036,3252
4273102,1630
8894171,3366
17145467,1821
341734,4375
14060,6049
745085,7103
177905,7380
112375,2291
145145,7327
7780091,54
800513,2792
603911,5197
4241163,2499
231725,5636
112406,5369
1586967,4069
788785,1982
5617451,4212
46893,5465
787175,2691
177970,3754
112437,2815
1980218,3404
210749,5477
30259007,2602
145222,6602
14157,3245
5355343,6682
2242385,6724
46930,4634
2111317,253
243542,7276
37570,4854
1718105,4670
898909,5250
3487583,5089
1062761,2974
407407,5176
309111,7279
2176895,3375
14210,5468
14212,6152
210826,3758
3487627,1859
145299,6984
14229,2360
2242454,3433
1849243,5188
2275229,1920
627874,6424
9166493,1651
3159985,6690
14260,6079
14268,5992
9549761,3463
1554371,7042
14283,303
178126,4991
47058,7142
997339,2040
47068,2597
24033257,2494
14322,7214
3651583,4879
1685509,4565
768009,3738
112651,3221
14350,5579
14355,5905
47125,2303
112665,6878
47138,5399
14375,135
8992813,2854
47150,5559
47151,3196
14391,2342
4864057,3711
145475,2992
47175,5614
964689,6406
10991701,1693
13482071,4006
276573,4802
14430,7002
702559,2057
1325155,6834
145509,4916
243815,5213
47212,6034
145521,5818
14450,3138
211071,4386
604299,2015
1030285,4758
243867,2091
178334,1995
1390753,7057
2865317,3696
243890,1872
473271,1983
833721,3677
309442,3926
2930885,4023
43825351,2491
2603209,4281
637143,3954
1063145,1967
5454059,6805
14586,7449
47355,6675
80142,4525
407827,2206
964894,1672
47396,3150
342309,5118
14630,7441
73593,5831
3881273,1907
3946813,2847
997694,1884
16398659,4043
57057,7431
8272201,3356
3946827,2609
440657,2979
7453021,2006
80223,5288
7289185,3773
10631543,3832
47481,5494
1292669,5362
1358215,4153
506253,4362
7563113,2835
5323153,5087
571795,3960
375193,5422
1325467,4976
80290,6795
866723,5230
14756,6089
4012465,4213
51615,5808
1423807,2552
14790,7326
440781,4518
14812,3015
506345,6912
244205,3103
113135,2191
539121,3958
440818,3706
6109697,6388
1489411,4140
866822,3814
12007943,4481
4569617,7014
14875,2323
14877,2367
2898469,4486
211497,7309
703018,7019
2210351,4888
4143665,3444
178746,1807
22186421,4041
12853003,1831
47685,4859
14924,6012
1751629,4790
80465,5280
80475,5596
1063517,4970
14950,5704
178802,2962
4274803,4129
1161849,1796
572033,7346
133570,4524
3160729,3915
15004,3251
11647649,173
506530,1740
15015,1607
15028,3156
47804,6045
1096381,5126
2046655,3697
3816131,2749
604877,4817
1030863,4671
4602578,2478
5487317,1880
17349337,3646
408291,4578
113390,7250
4405999,2866
80631,3141
3095309,3712
178959,5238
15125,295
2079511,2678
1258629,6809
1063713,1737
15138,2918
12041003,3435
670514,6319
146234,4824
899899,7071
1162059,4496
998223,4289
572242,3724
15190,5440
1406095,1948
408425,2803
1003255,6853
146289,5214
277365,3539
15225,5687
375683,5347
310155,7032
113553,5806
15252,5984
3390361,4349
146334,1873
605098,3735
2767787,4461
48050,2808
7650231,1619
1063865,4141
768955,5102
637887,1968
48070,7370
314755,4400
2700451,2868
80852,5987
15318,5824
2571233,4661
179170,6573
1162213,255
375782,7049
15345,5877
361675,5599
969215,4927
670719,3506
4373511,3774
15375,2279
408595,7347
6503453,4060
474145,7106
343077,3961
80937,3001
27671597,3558
48174,6796
539695,4598
1195061,211
2407479,4214
27180089,3345
2243643,6249
179265,6950
5651522,22
15428,6112
277574,5149
4890467,1962
932955,3378
2800733,1603
506974,6767
769119,4874
605283,6310
80997,5453
1837585,4126
15470,7451
113775,5534
53689459,15
2210935,3713
57195,5763
146566,4586
2997383,75
146575,5571
48279,5281
2636953,5143
474266,6851
48285,5816
212135,7297
48314,5459
15548,3209
2505919,4783
15561,5937
48334,2131
703703,6953
1227993,3698
113883,7318
15580,6004
4930783,4026
1457395,4346
572663,5409
507129,6430
2473211,4541
1522945,6557
900358,1894
1457427,2532
11648281,1773
363055,6600
3292445,1729
3194147,7036
474411,6514
2610,5909
1588533,3879
15675,5721
245055,3963
2766049,4135
3915083,4754
376142,6907
9649489,4271
48484,6075
638319,4142
15730,5300
29834617,1689
671099,3035
8085,5522
13745537,3360
81282,7111
1916291,5003
114057,5882
474513,1928
15778,2248
245157,7348
43105703,26
2379189,4011
11615669,6203
2099785,3906
81345,7320
15810,7201
933317,7117
310726,6942
29903437,2722
2506195,6718
409045,7075
15834,7335
1326561,3714
638435,6856
1621477,7237
9485801,2655
572907,2939
15870,4425
278018,4735
14466563,1876
15884,3091
540175,5539
5258773,2865
4406811,1704
48668,226
1293853,3107
15903,2359
2997797,4675
998963,5371
15925,3267
81466,4418
15939,5925
5389901,6295
15950,5686
278103,6620
147033,2814
79052387,1610
219849,4585
2551594,3995
474734,3940
8125,138
1988787,6271
15990,6674
2145913,3892
212602,4955
5357183,4234
53998,5454
114308,2594
81548,6031
81549,5786
24880481,171
5389969,1853
17546899,39
48790,6662
376475,2695
278179,112
48807,5896
1031849,7238
507566,1960
245427,7076
179894,6976
966329,5311
212667,6630
1294033,2095
106375,2283
81627,5046
147175,2905
48875,2309
179949,6636
11484911,3838
1392377,1974
737035,7239
51842,2984
16150,5715
933658,3639
4767521,2776
12664619,2617
114478,6979
16182,5853
19840843,3340
114513,5344
21946439,3566
278369,5471
81770,6981
343915,4957
868205,4513
49010,5028
16245,3082
18129667,3573
311170,4084
81795,6641
409479,6773
49036,5995
16275,5659
2998165,4091
49049,2260
5343899,2529
49062,6982
16302,7435
966575,2570
1556401,6524
49077,5783
4505527,6826
180154,2082
16317,3272
1490883,6397
1753037,4895
1097679,6706
259407,5749
376805,7183
49126,5246
14955857,1627
49130,2070
147436,5976
8339441,174
5783557,2836
11386889,2754
1032226,3671
3962203,1783
1196069,4372
16422,7394
16428,2720
85147693,179
1818677,4750
49210,6970
20922427,3603
639065,3945
8699995,3553
311395,5322
3424361,83
16492,6084
573562,4115
147591,2998
770185,4688
3621005,2630
16530,7306
215747,2219
82082,6667
114855,7169
7979183,2746
16562,3182
49335,7399
2056223,221
16575,5728
16588,6120
3621079,6220
475354,6443
221221,5066
245985,4339
2965735,6276
1589483,4507
16625,2318
147706,5035
344318,6614
5161217,2846
49419,3144
1687829,5153
278806,7230
2951897,4505
147741,2157
4309279,4704
82225,5701
161161,5481
26795437,182
16698,5270
344379,4337
115005,6658
540995,6538
6930763,3401
1655121,3634
16731,3201
213342,3865
639331,4601
246123,5765
508277,5336
409975,2987
5292413,1834
2343314,1660
3719573,3716
3817879,4886
16796,6151
377245,1997
115115,7396
16820,2928
246202,4555
82365,4843
1130942,6698
2048449,4975
49610,5139
1196506,3688
246235,2156
9781739,2507
541167,4334
82418,2896
17023487,1649
734635,4517
16905,5488
573965,4336
7872601,4053
1196569,2159
147994,3978
16926,7210
377377,5020
9945637,6680
6832679,3614
148010,4479
31965743,1753
115258,4995
22135361,1706
16965,5902
49735,2239
639561,4330
49742,7422
2769487,2651
16983,2351
82522,2167
37438043,3556
115292,5969
410205,6495
541282,3486
737891,2684
148074,6825
115311,4841
6439537,4095
17020,6043
1786499,2771
1458821,6576
7848589,3430
344729,2155
49818,4610
48677533,180
180895,5262
2146981,2044
1622695,4531
1983163,6749
17094,7005
82654,4849
803551,2976
344810,4039
49910,7144
836349,4325
5784321,3334
1000195,3520
49938,6552
82708,6066
3457817,2550
11780899,3787
1852201,2038
213807,5205
49972,2826
901945,4333
279357,5013
574287,6493
79135,5493
2507601,6243
17238,5075
934743,4319
1852257,3593
50025,5667
1360749,6282
148335,7084
3130231,4563
705405,6227
1229695,4722
541569,6325
25314179,2474
508805,2883
15745927,3434
17290,7437
19266,5065
17298,2819
37864361,35
1164205,6708
23184311,6187
771001,7152
10044353,3649
213962,7067
1065935,4329
181203,4838
658255,4903
607202,2852
1852405,6745
1524733,2887
1037153,3034
672771,6839
312325,2804
246790,6824
2212873,4761
1131531,1902
279565,7377
541717,108
2311205,3853
18596903,3347
410669,3120
1852462,3440
50225,3260
24364093,29
1328195,6426
10193761,4087
8995921,3833
115797,2174
83030,4609
5677243,3667
50286,4809
8176753,4227
21709951,3777
4375681,4534
1262723,4332
214149,4834
312455,7357
1066121,2032
2114698,3365
148625,2272
1787026,6208
705686,1911
1459354,3590
2245789,6812
443555,7231
967846,6259
22365353,2604
28713161,3382
148666,5315
17595,5919
181447,279
17612,6053
214225,5562
640211,2154
574678,3919
410839,2123
705755,4593
279775,3064
2245857,3798
4834531,4279
1721573,4721
10405103,1940
4277489,3018
1393915,4324
50430,3545
17670,7181
8930579,3992
1426713,4312
115995,6966
83230,6551
24795,5893
50468,6026
7947563,4866
17710,7407
902451,6490
14404489,1650
7292219,6268
1164605,6562
247107,2565
17732,6092
50505,6999
17745,5082
1492309,4328
2442583,7041
312666,3425
836969,5407
1295723,4906
1525107,2741
17787,3225
345477,4582
4179335,6242
10896779,3867
50575,3136
1557905,4318
50578,2188
3687827,6315
19645847,3384
411033,4301
352495,7308
3387461,6256
15320479,2634
345506,6822
1619527,2662
83375,2300
418035,3899
35742,6936
214455,4183
247225,5630
378301,2062
804287,3110
83398,5384
6243787,4273
247247,5056
17875,2326
902615,6324
83421,5856
280041,2055
17908,3250
24528373,3565
50692,6102
542225,2985
116242,4607
1132058,1786
8145839,6365
4081181,4878
83486,2122
2868767,4350
1066533,6486
2999847,1817
1230383,4161
181815,7124
2344505,6802
947807,2889
17980,6072
8544523,3469
4950967,55
476749,2098
837199,2153
443989,5346
1033815,1673
83545,5436
18171487,3998
2442862,1752
149110,6786
4933247,6722
1820289,4268
18050,3072
2770563,45
50830,7384
17974933,2523
312987,3027
181917,5767
18081,3271
532763,5172
3425965,1777
116402,5179
7653043,1888
50875,2287
1885885,1901
625611,1803
5621447,4921
3753673,3452
444106,7045
18125,134
52173,5868
18130,5404
18135,5874
15189721,6202
2737889,3856
476905,7253
509675,5591
83694,6871
214774,4366
1951481,4323
8550017,1749
7685899,4059
935693,2152
1984279,2965
18204,5975
12404509,3580
18207,3147
116522,5332
313131,6783
2017077,4223
16974,5779
887777,2168
182091,7257
6047573,1768
1722202,1726
83810,4808
509795,7128
640871,5329
51051,7445
16107383,6350
1515839,1985
6305431,2546
134125,2282
9389971,228
18326,5512
42021,5886
7358377,1781
83886,6465
280497,4521
18354,7374
51129,5911
149435,5277
5851069,6241
542659,100
11269793,6266
2181067,4317
1034195,1922
1689569,2886
804837,1866
477158,4254
2312167,6888
116725,5666
2804735,1843
378879,4814
346115,7081
51205,5500
1394697,6481
1919005,6285
247845,6457
3328039,3731
1263661,5310
1099825,5527
247863,6873
8833081,6470
6244423,2007
18513,3244
84050,2577
772179,4539
7424087,3662
3491929,1881
18525,5718
2345057,4327
3295331,4924
3268967,2867
2377855,4311
510081,6536
116870,7079
1132681,2151
182410,6860
41325,5673
18590,5080
3655847,1945
870573,6734
116932,5977
411845,2564
149702,4742
3105,2379
18634,2200
84175,5617
608465,6919
51414,6640
542938,6819
313565,4776
51425,3233
477411,6910
182505,1937
18676,6106
1558779,6475
116994,6777
444686,6527
2902291,1855
2541845,2740
3197207,4719
84249,5821
575795,4581
182590,3949
33530251,3767
11308087,2486
84303,5889
18772,3090
12568919,3780
4180319,6399
1034594,6223
870758,3377
2640239,1900
1263994,6692
696725,2800
149891,2242
3459463,2640
182666,4604
1198483,4795
18837,5922
2476441,4681
1100869,4176
18850,5683
18860,5998
18865,2264
18870,6992
281015,5367
51646,5431
1952194,3617
674245,6591
15878603,1747
412114,4760
15550931,2496
1329621,4105
2771431,2954
10188541,3436
444925,2694
18942,6677
5818879,4066
117249,5274
112385,5060
477717,4793
1198615,6754
18975,5706
182819,2210
18981,2350
7119281,4430
3034205,2520
21875251,2614
51765,7323
543286,4155
4999745,1816
1657415,4707
117325,3068
117334,4806
608855,7274
412269,3968
641654,6815
1657466,3446
19074,4861
1723025,176
5590127,2856
314019,5748
150183,5752
150195,7159
314041,5455
117438,4305
1428163,2150
51909,2196
510663,4765
2476745,4098
1362635,4677
23448269,3339
5622483,33
3033815,4267
871131,7039
1886943,4231
270802,4146
1231599,6418
84721,2250
183027,3038
3066613,4322
838409,3161
9325327,6353
19220,2829
3033877,3811
2050841,1979
19228,6132
3230513,6504
19251,2358
52026,7261
314171,102
1592129,7025
183106,6546
215878,4600
1067857,5363
735034,4128
1133407,5229
346983,6455
1297257,6702
31083371,18
19314,5817
84854,7299
707455,6528
1526657,2149
445315,4989
6343561,3789
117645,7140
14967277,2616
6704017,1904
478101,4898
150423,7292
609178,6559
936859,1930
117670,3543
19375,133
2116543,4466
3230882,2489
117711,5769
6736849,1717
248788,2589
19425,5623
4180963,2019
3328997,4310
18812071,2513
1002478,6720
2580991,4242
46475,3190
248829,4696
7556095,3387
3361795,4222
216070,6448
150535,7386
52234,5354
10013717,3349
25054231,193
9194537,6240
52275,5569
19516,6008
150590,3760
3427391,4316
248897,113
183365,4996
576583,275
3558583,2739
117845,5397
45387,299
1690715,3718
52316,5989
85085,1606
19550,5700
19551,2253
52325,5702
15060079,2524
117875,2273
183425,5665
10275973,2755
128877,4621
347282,4515
52371,3003
19604,3208
4770965,3583
543895,5191
9194653,53
4279457,6216
1199266,4093
52390,5000
5852327,1889
2739369,3652
19635,7454
8080567,3464
183483,5811
150722,7185
19652,250
2040353,4345
7851215,1694
19665,5914
1985753,6320
7359707,1952
609501,4729
85215,7363
806113,4580
19684,6048
238119,7247
4803821,2668
3624179,4321
14535931,1601
29155,2257
544011,4936
118030,6876
2641171,4725
19734,7401
52514,5218
2542903,1914
19773,261
1396031,4356
249158,3752
4672841,4718
287287,5351
216398,6540
2608463,6847
4902247,6361
150898,1999
52598,4852
1920235,6501
19844,3249
445835,1993
150765,4388
413075,5540
52635,5247
839086,6810
413105,6872
6409653,1629
19894,2241
1822139,264
609725,212
16109023,2475
1756645,3502
5459441,3903
52725,5609
314870,3708
183799,3218
19964,6078
19965,2201
806403,7023
85514,5044
9303983,4052
52767,5791
2215457,76
445991,2106
20010,7271
3427887,3783
282162,6229
118326,6339
5787191,4453
675393,4684
2838085,4275
183885,6597
380494,4546
3133015,6368
6999643,1815
10866271,6239
740962,6747
249458,7245
872053,2683
2707063,2037
4050553,4315
20090,5359
2444923,4939
2838143,6376
380545,5173
1379609,6565
6268121,2941
20125,2312
2543271,6356
52910,6997
85683,105
20150,5655
85690,6639
282302,4595
216775,5664
2412235,1670
20172,2599
4148947,1899
577239,4469
118490,4699
642785,7072
4574953,1970
20202,7001
2707179,1827
52972,6000
1855217,6833
16895731,2504
52983,2916
27566719,2502
151294,4409
20230,4863
315146,7116
615043,5256
85782,4185
184093,3123
2674463,2779
773927,4381
4247341,4266
2346799,6316
2019127,2138
216890,4259
347967,2581
20295,5796
937802,6804
511819,4821
832117,2969
23383889,3602
2215763,2012
413526,1675
839523,69
20332,6136
479085,3508
3985267,3887
20349,5933
20350,5622
48451463,1613
1232777,7098
774039,6381
610203,2554
85918,4622
446369,5208
15355819,2724
217005,6915
11194313,1721
1920983,87
2936801,6807
151525,5671
413678,1924
544765,4797
20482,5502
512006,3739
40783879,192
86025,5588
30723,5501
5656597,2942
315425,5586
151593,2115
53295,7423
1691701,2139
643126,6407
544825,5583
184382,4803
2150477,4501
20570,5294
249951,5018
2216035,4104
315514,1984
74431,121
217217,5432
1101957,4663
53382,6468
282777,5124
20646,5809
381095,4912
512169,1869
53428,3085
27775163,1625
676039,7342
24240143,3988
4706513,4221
20691,3243
479446,6756
11096281,1644
1102045,3704
20706,7325
53475,5639
86247,2707
53482,5289
6043687,6477
4739311,2943
7065853,2931
53505,5771
3864619,2549
708883,5379
4509973,2748
545054,4679
4600897,3471
4247887,2519
9523541,4482
20825,3266
151905,6632
828134,4489
282982,6530
1757545,7017
53613,5822
10506613,2726
3199353,3578
119164,202
3035517,6236
2183555,3673
4903301,1898
2019719,4945
643467,6770
446865,1805
53650,5597
119187,5780
2052501,3373
86428,5979
774566,1797
3789227,4343
20910,6664
414141,6335
676286,3720
250305,6343
20930,7403
2445773,5107
250325,5641
217558,5193
24584953,3996
20956,3207
545259,6452
86515,2195
53754,4781
119301,7361
119306,5239
36321367,1624
3494413,4966
1331729,4543
14471699,2606
709142,1738
447005,2960
1692197,4981
2313649,4569
21033,2340
47619,5836
1036849,2142
774706,4497
768094,6503
86583,5425
2052665,6417
276575,5600
21054,5249
545343,2025
447051,7104
184910,3540
512601,4374
21090,6972
447083,2058
1299055,4751
5100154,1620
1135234,4277
21125,294
873103,7242
1266325,188
152218,5175
2904739,2945
447146,3507
348843,2785
21164,6056
5231281,4309
86710,7260
5034679,197
14537411,1683
53958,4405
36459209,170
14209739,6238
1495762,6250
4055843,4241
1004245,3942
119510,6951
2970327,3403
4936409,4747
86756,3007
19780327,19
217833,6601
512746,4875
5296877,4314
348910,6292
1135345,4508
971509,5146
283383,2702
86779,2245
36309,5498
578305,6454
1856261,2966
21266,2233
3604711,198
578347,5374
709423,2144
217906,4799
5657407,2728
21315,5467
21318,7425
217930,6761
906059,2563
54350669,25
316239,3757
250705,7291
283475,5663
3101527,4246
773605,3924
3363681,3432
971618,2533
316274,6515
840565,7062
152438,4914
1987453,2946
54145,5507
21390,7146
21402,5772
5690267,5086
347633,3167
86955,7195
54188,6074
4871087,4869
316342,1929
18240449,2831
1073995,4882
250821,2811
1790921,3040
873422,3675
21460,6036
512981,3054
54230,7321
3068891,4652
9622493,1780
21483,5876
381938,2940
414715,4695
381951,2700
2937874,1705
21525,5578
1659931,6848
15117233,2505
381997,2145
87087,7328
185402,6621
1266749,3043
7132231,4710
1430605,3722
87125,2275
1070167,2948
250971,6948
54366,6654
14033767,3991
1004663,3044
382075,5628
87172,6023
1758531,4024
1823885,3420
3495057,1712
54418,5047
21658,5509
382109,5052
119966,6637
1004705,4890
1103011,7113
21675,3137
742577,3045
80073,5762
21692,6116
8115389,62
4314311,1954
349401,4770
451451,5131
66737381,2469
480491,268
87285,4419
152830,7069
15881473,4427
54530,6642
1529099,4731
54549,5891
3779309,74
218405,3048
5920039,2932
644397,4883
177489,5751
21812,6003
391391,7376
120125,289
2471045,2641
12178753,3866
87362,3050
447811,5386
2544971,2661
349525,5541
21850,5695
54625,2308
6247789,4122
120175,5692
87412,2595
11130229,6233
21879,5946
185725,5690
251275,2989
4609423,1728
284053,5428
316825,5662
218530,3534
3654,5908
10737067,3613
7624109,4702
447925,5553
546231,3726
21945,7440
906685,4935
939455,7047
719095,4942
21964,3155
7525837,2545
21970,2136
1234387,6580
1496541,1883
1070558,3694
153062,4192
153065,2180
87542,4962
480766,3529
22022,5298
546325,2573
6182423,4308
9135,5907
3429937,6296
54834,6962
1103414,3635
448063,2970
5035589,4492
1365581,2789
743002,3515
284258,2874
349809,1989
120435,6794
644725,5530
22134,7200
54910,4844
58305,5048
54925,260
10999439,1814
3692193,3608
20764327,1746
22185,5898
2676395,3692
87725,3230
1005238,3479
382655,4190
22218,4424
1070797,2562
317135,6649
18588623,2723
415454,4160
5756645,2619
218855,4960
6412009,1897
1267435,6765
186093,5846
3102449,4103
2709239,4894
1201915,3527
20097,5904
1300233,3813
55055,5296
1267474,3451
22295,2261
46847789,2480
1955635,3857
22330,7338
612157,2793
3790655,1667
153410,4368
87875,2284
284487,7107
153425,3067
3856214,3335
2611037,3936
3299179,1955
22386,6673
8869751,3620
7296893,4446
186238,5014
87945,6668
382858,6494
1922961,3872
1234838,3594
22425,5703
6608797,2737
907166,6283
1169311,4951
55223,123
55233,3078
874437,4347
1791946,1665
25352141,1754
120785,5457
102051,5883
677846,4111
6674393,4265
1857505,3513
120802,4839
63825,5603
22506,5221
1497067,4575
31059,5897
710645,2872
448514,6840
30693379,2482
22542,4855
1988623,2541
1792021,3736
22550,5577
33151001,1615
317471,5423
9230371,2527
4446245,2509
88102,5413
55335,7198
1259871,3907
5888069,3690
8804429,207
812045,2773
809042,4075
383061,6857
7152655,3350
841841,4186
88179,7415
59675,5656
19060859,3427
153729,5847
17437013,1643
877591,4611
2250895,1892
1497238,3799
10773529,3441
533533,4911
22707,302
3004603,4449
2250941,6404
22724,6131
2513095,3477
481481,4956
1005771,6318
841935,3598
55506,4201
219351,4823
645337,4800
350427,6341
4511965,1826
1136863,2772
219373,3217
88305,4202
1530098,6685
2644213,2551
12540151,4044
55545,4422
2185469,7056
22785,5439
973063,4732
47765779,1678
2657661,3409
284954,2043
121121,2194
481574,4568
55594,4638
1038635,4158
1431859,7147
55614,7136
940355,6905
186694,2056
186702,4085
2906449,3497
88412,2823
743774,4284
579945,3487
219501,213
711022,6487
80275,3188
3660151,4286
186745,2125
121210,7125
88445,3059
907647,3734
2873731,6416
3529097,6811
42050,2907
3822,5521
3234199,3020
7166363,1896
22940,6028
1399205,68
1104299,1981
3168685,3449
121278,6533
22977,2349
285131,2981
22990,5284
383439,3946
497705,4984
186837,5323
1694173,77
9099743,2647
35609059,27
55796,6033
154105,5393
5724677,3834
350727,4394
55825,5684
12179993,3552
1301027,4172
383525,2988
27974183,1819
11950639,4225
121394,7258
353379,4909
9722453,6245
5069407,2629
1956449,5158
8477283,21
3693157,251
23142,7305
416361,5148
7395949,4220
776815,6940
55924,5981
186998,4522
1661569,3937
23188,6088
809627,5320
55965,6671
547491,4117
23205,7450
12999337,1813
252586,4815
744107,4952
104553157,11
1694407,4686
2120393,4784
29579983,3549
5142179,3465
9001687,3874
1628889,3494
4152029,6275
1039071,3702
514786,4540
88806,4480
711399,6850
285418,6843
23275,3265
23276,3014
4086511,3511
3332849,2072
88825,5712
613118,3895
88837,120
252681,7164
350987,5450
5135119,2667
645909,4298
23322,5050
1563419,2870
580382,6735
514855,5162
5448839,4096
973617,4532
2939699,3905
3005249,1913
318274,6911
121670,1938
416585,5017
23370,6644
23375,2322
1039186,6476
1432417,5317
56166,6933
12311417,2626
121737,7193
88970,6467
2884637,4236
1554925,2567
9744757,3406
1694615,4109
23452,6011
74907,5770
89001,5850
842673,6438
7068605,2498
53067,3060
56265,5219
154570,6542
1891279,3031
2644945,4068
56277,3195
2153437,2672
517979,2794
872275,5528
580601,3117
23548,2927
187395,3973
2612233,2074
318478,4794
1924111,6884
4012547,3416
154652,2592
56355,4853
89125,2292
416806,6579
23595,5299
7887919,4264
56375,2277
64379963,1676
121923,5854
154693,2211
285770,3524
12789,3274
187473,7358
253011,5129
89175,5551
220255,5411
318565,2107
154734,6329
2382961,4456
23667,2247
121975,5568
220286,7155
11394187,3561
1006733,4941
580754,7040
26860699,2493
122018,3039
23715,5870
10083499,4648
1268915,1958
5397691,2538
449735,6974
2022605,4073
1137873,4033
3267803,3636
8084707,4307
23780,5991
10050791,4058
5528809,3475
4775147,4659
12836077,2744
154869,4628
253175,5561
23805,3005
154882,6924
417027,4734
89355,6934
318734,4899
23826,4641
15523091,3647
23828,6042
5659927,3367
5332255,3577
1236273,4238
351538,4164
384307,5417
1072445,6769
23870,7213
253253,5261
744775,200
122199,4417
1072478,3455
2219371,6305
318835,5209
23925,5685
1039737,6830
89466,6787
3628411,231
187775,5595
1727878,1771
2219399,1860
3595659,3396
34758037,3381
417175,5532
8215961,6687
2055579,1778
712101,3939
1531309,2077
482734,4037
23985,5793
318903,4954
286143,7254
2284997,4156
1826246,3653
7379021,4272
1400273,2561
122322,6846
908765,6451
4709861,2767
56810,7364
1007083,5109
24050,5619
286195,6977
89590,4780
6315517,2528
613893,6409
548359,3053
53165,2231
657662,4134
155155,7202
908831,5154
8707621,3800
351785,4385
1171001,95
89661,5278
2416193,2869
482885,7343
26480567,2613
3825245,6683
2055781,6505
908905,2024
1269359,4934
7777289,3683
14638717,184
89726,7313
712327,2882
24206,5499
384659,269
122525,3186
24225,5714
1400487,3638
27909803,1698
11516531,3405
24244,6111
1629887,5361
712385,2041
777925,2898
2285258,3784
188108,5966
1924814,1720
24273,2357
450262,4685
843479,4977
6675251,2518
122590,6598
1203935,4566
8642273,2736
6971107,3447
188139,4777
941811,6423
24310,7448
8675071,61
1695514,6357
581405,2784
122655,6980
120835,2129
57122,106
417571,5236
384826,4470
8740667,4219
8609599,196
1400642,6364
417605,92
1957703,4570
89930,4404
2481997,187
424589,110
450385,2080
319319,5240
57188,2924
221030,3928
3235687,3852
1859435,4282
9872267,4445
319345,2059
6578045,2608
24453,5936
843657,1949
1859473,6425
810898,6379
581529,4928
1105819,5166
319390,3509
2711471,4494
516026,6382
1433531,78
122815,5244
221122,4384
122825,248
155595,6603
2678741,4755
352222,7101
221154,6385
24548,3089
11231207,1766
843755,4361
9555,5519
90117,5861
57350,5589
581647,2176
647185,3536
614422,4504
745503,6511
7888933,2517
1761319,4462
2777135,6390
24633,5918
3170366,1647
24642,2709
2368865,3884
9035849,4306
24650,5679
2580565,3669
188518,5125
5824621,3876
17218237,3785
2121843,57
155771,3124
4219007,4528
1433729,3106
57475,3232
57477,5479
877933,5333
123025,5608
57498,3764
24738,7180
17850539,1617
581825,2693
4153546,1686
90321,7387
24794,5487
1106139,4244
6709469,2657
6595963,4089
3137771,4027
1630447,6561
90354,3761
123123,6666
1302775,2568
90364,5986
2023678,6237
24843,3181
1368334,3374
1466641,5195
13590803,4646
876826,4655
8773921,3661
1433905,4113
24882,7332
26169397,48
713031,6442
4710729,1695
57681,5895
1565011,2560
90459,3000
8806759,2535
156009,7351
221559,5034
319865,6957
57722,5426
1040763,2752
516477,6613
13739417,2725
659525,5582
418209,7229
156066,3730
2482597,2935
352682,6583
25012,3206
188853,4401
25025,5736
30663121,3338
25047,3242
5235167,6247
4796351,1776
418285,6947
90610,6653
385526,4788
839914,3908
188922,3709
57855,7303
57868,6039
320013,2810
2449955,6297
680485,4577
320045,2971
888925,2799
1794611,4872
975415,3896
19424693,3778
188993,2235
39549707,3986
25911877,6186
5825095,1711
254541,7122
4678223,2548
90706,7174
25172,6071
4940377,4877
3531359,4150
352869,4738
25194,7419
57967,282
57970,7196
19096181,1700
9659011,2735
385671,7073
25230,4205
124355,7420
1696413,6697
3662497,4782
8452891,2834
156325,3184
23716519,3821
254634,3645
594035,4948
25270,4643
21160633,3559
582335,4769
1794759,3687
58058,7329
1325858,6272
6316751,1825
9855703,1661
1663705,4288
30303,5837
287451,2582
16999133,1812
123627,2895
2188021,1973
1663739,6440
156426,4121
3728153,4107
25375,2305
90915,7300
25382,2224
221991,3977
25389,5873
1582559,2140
516925,5626
222015,4478
189255,6791
713545,6841
6447947,4021
25420,5983
58190,4420
15162,4644
516971,5032
549746,6887
25461,2339
1205113,6611
1532795,3893
1172354,4025
123783,2166
680846,4459
811923,3485
287638,4944
1074073,6862
222111,5810
123823,280
25530,6937
10511293,2534
943041,3518
58311,5863
975821,7227
91091,3179
3400663,2530
244559,2226
1139677,4471
9036769,3569
1958887,67
5858285,1658
713713,7127
287738,5112
87598591,12
156674,4558
91143,5781
4875277,4102
1106959,5326
2647555,3878
156695,5180
25625,131
25636,6115
25641,5840
910385,3725
5596213,6211
58425,5564
58443,5266
123981,4848
615505,4553
4121689,6300
517215,4038
91234,5243
10309819,4007
124025,3227
2155657,5307
4121741,209
124062,7034
1008805,6309
779433,4752
2614447,5099
189625,2270
746697,3861
3007693,252
25806,7391
484561,5410
255189,5169
2221271,4370
222425,5542
189658,7108
10314971,4263
4089055,3835
2117843,3732
7431413,3840
681207,4509
1107197,1926
91390,6961
25857,3200
13018667,1772
58630,6669
4416787,2027
11560237,2506
582958,4348
2024751,3665
46690,7269
25916,6083
20309309,3997
42550,5604
25935,7436
25947,301
812383,5031
583015,1988
7005547,4233
189805,7317
1893749,6610
1140087,6402
386425,5548
8054141,2756
97175,3187
255374,6858
1729937,2880
845215,6429
58786,7416
34170277,36
26026,5078
2581934,3572
320943,7066
1303985,4352
353717,2113
6153655,3607
4449731,4071
1598918,6214
134199,5805
7464397,4526
1336783,2937
910803,2851
615902,6262
288230,6313
217341,5758
58870,4203
1533433,5222
779779,6625
26125,2317
255507,1935
3958297,6695
3827227,2010
12166747,4051
91698,7070
583219,5016
124468,2920
10282559,1702
2778693,3439
386630,3488
222794,6628
2866105,3417
1042015,6577
4187771,3685
124545,4608
255626,3947
1839383,6520
157325,5631
124558,5324
190095,7234
1140377,2682
157339,3177
714425,2572
91839,2181
648907,5340
3860173,3019
288463,278
2680539,6207
2189031,3589
8316649,1833
26350,5651
56525,5713
18999031,1811
4777721,4123
14329471,1757
1566461,2094
5891843,4711
3139339,6723
550671,5094
386835,6327
10938133,1895
26390,7334
222999,5314
26404,5997
26411,127
26418,6991
550715,7153
59204,3084
943943,6590
190281,6650
911183,7148
26450,2995
8480399,1878
124775,5638
20375401,3391
649078,4533
190333,114
1173381,3858
26505,5865
92046,4369
157586,7290
518035,4475
92055,4623
157604,2820
37191,5486
124845,6550
7858097,3845
26565,7406
59334,7086
649165,5155
11233237,2843
119119,5506
26588,3154
26598,7207
2320381,4706
190463,3176
124930,3974
15001613,6189
59409,5777
4515863,6415
26650,5574
157731,5376
6547495,1652
419881,5342
845871,4249
34713,5892
4352051,2650
124982,7359
59450,5552
12511291,1715
92225,5649
1894487,2559
14411869,6351
518259,6821
3827391,3994
387205,6922
354445,6629
6678671,1602
485537,101
7039139,4483
125097,5383
59565,4639
7715869,1759
59570,6935
3467443,4097
7465157,3576
92365,5461
10610897,4045
11430103,4218
92378,7413
3172047,3364
48165,5063
30927079,3557
26862,5185
1501423,6768
59644,6025
1042685,1802
92414,5339
1370369,3746
3234,5524
1370386,1779
244783,3113
26908,2828
16267463,50
1698087,1785
190762,7255
2582827,4968
125229,2121
92463,5394
354609,2809
8415539,6681
158015,5067
2386241,5091
1403207,3033
14575951,3428
8448337,4657
310329,2908
1403225,2688
26970,7090
92510,4200
682341,7027
2681195,3453
584045,6340
59774,5279
190855,5343
627095,6569
6220181,6694
42735,7003
92575,2993
3664293,1751
435953,2205
59823,3143
223665,6785
59829,5401
81947069,13
27075,3071
11758021,4000
11692487,217
5466571,6394
1272271,6450
12871417,3399
223706,4167
682465,6772
125426,4778
27125,2297
682486,3458
4024823,5141
10316297,2516
1567247,2039
92690,7135
27170,7434
146523,3104
420394,6892
336973,2980
6580783,3684
1206835,4035
15231541,1655
1468987,2045
2484805,6396
92742,6543
158286,6741
2648657,4564
1829465,6705
15362659,3354
3926629,1842
387686,4929
322161,4365
551551,7287
1272467,2023
5761691,4101
191139,2108
27306,5755
60078,7161
1043119,7102
453299,2893
158389,2190
551614,3817
289478,7031
256711,3174
175491,5804
486098,2863
1431382,4057
5827289,2864
24996571,2603
60125,2286
223975,3130
27370,7393
27380,2719
8907509,1774
2583303,1725
1469194,3468
27404,6087
125715,4807
256795,7262
16623409,3385
27436,238
9104173,6359
21645,5838
79475,3135
60214,7388
6679351,3582
1600313,4547
1698619,2956
4614973,6806
191301,5210
6024007,4431
60236,2717
584545,4393
158565,3979
3959657,6554
4221811,5088
27508,3013
912247,79
486266,3923
70122,7080
93058,4827
4090757,4280
3140486,1696
27531,5913
813967,2783
1239953,5004
60306,4390
6024083,1847
27550,5674
2419615,6257
322465,5132
130203,5819
93092,2715
93093,7203
158631,5254
3204935,3871
60333,5071
26694131,1690
191425,5642
289731,7344
584647,91
125902,4402
715737,4253
814055,4472
73952233,1611
912373,4691
125948,2713
4793269,4240
2681869,1978
1436695,3917
158746,7248
27676,6052
650275,2692
40594469,1623
1151495,7094
224315,7311
9370805,32
27716,3205
158804,2712
257114,7074
93275,5572
60515,5497
912485,4116
453747,6445
191607,2060
126075,2576
3206269,4344
60543,2817
191634,3510
158875,2271
257193,2583
93357,5776
7229981,3470
224434,6586
27830,5269
191675,5567
2714815,3493
60610,7301
1731785,3701
388311,3537
126170,6792
1666281,6391
27885,5079
453871,109
355570,3864
234025,5601
2026749,3843
1338623,5160
4812035,1718
224516,2710
421135,7163
2977051,3480
1076515,4297
224553,4741
27951,2199
7367987,3801
5270837,6371
1076537,5101
348725,5593
748867,5408
814407,6818
34270547,3337
19918169,172
60762,6634
781665,3423
60775,5726
18738539,1756
28014,7270
28306813,3601
305045,3037
355718,6896
6516107,6715
2125207,2849
257439,6595
12774821,4217
93610,6932
4386221,6367
191919,6958
388531,3166
11473481,59
3861949,3632
519622,4753
4091349,6192
814555,3740
28126,2214
441595,6788
93670,7285
126445,2186
454138,4510
28158,4635
28175,3264
5107219,7008
1469973,6298
1306137,3376
192027,2972
585249,3897
3501605,6362
1404455,6437
650793,6332
294151,2189
28210,7209
159285,6346
1895991,6691
224825,2990
3206733,4003
93775,3229
650845,7149
93795,4963
355946,4574
1437293,4376
28275,5682
749177,2097
552575,2801
28290,6609
18378373,2495
1404557,6852
28305,5834
683675,5545
6483617,3437
28322,3127
224939,270
2092717,4542
6876857,4065
618171,4759
61132,6068
1111715,6525
93925,3134
2027245,6377
618233,5366
323323,1605
28413,5795
126730,7235
2289443,4974
61226,2182
61959979,1621
290605,4605
421685,5128
487227,2774
1437501,6374
94017,5181
28490,7004
814929,4154
1764215,1909
37518,4965
749398,6304
5336929,6414
257890,6328
552805,4382
463505,6619
1372019,5223
323449,2207
585599,5385
126854,6651
978835,3747
12447641,2842
61347,3170
880555,7099
782254,3859
61364,3010
552885,6383
2486199,3445
2453433,3836
61370,4624
28611,3146
454597,3112
1994707,4933
1077205,7219
94178,2797
7401443,3362
28652,6110
356345,5204
1468415,6506
8155133,1710
6254591,6205
1896455,4032
94221,3076
5107739,3587
29325,5699
1929254,4049
468999,2579
159790,4169
487475,5584
1536055,4502
28730,5074
57962561,169
487490,3460
258115,4627
356421,4949
21175,3235
425315,5168
1339481,7272
7172191,2656
5271649,2018
127075,5696
1175675,5526
28798,5292
520331,2204
10743949,6686
3993743,4499
250563,93
228718,3962
290966,4551
7925915,1645
28830,3985
170085,7249
75803,2255
61605,2708
225446,5008
2060455,4237
28842,7371
61625,2302
94395,7087
291005,5177
323785,4196
61642,5395
4321493,7009
8155351,1942
61659,5867
28899,3199
520421,2177
323817,4599
454894,7028
1339634,3805
1110265,7043
1306877,4946
997165,4357
1102551,4127
1732895,6829
61731,237
28971,2348
127281,7298
5992765,3395
8909119,4490
37155143,2481
11137363,4013
651605,80
288827,2164
913767,6558
1503593,4881
97682,3105
389499,5156
61828,5988
20607379,1642
61845,7178
11366807,2636
881049,6507
94622,5260
10692677,4226
578289,4787
13496749,3332
651695,4692
3928497,1653
4851,3279
2257333,3030
127426,2109
61893,3002
13955549,1885
160225,5675
192995,2173
1503717,6719
291305,5330
10383865,1684
651775,2899
324105,6447
291346,6618
21000733,2484
684574,4079
61985,5485
36634033,3328
127534,5211
356915,4833
160310,6588
651833,5011
7434817,4867
11506445,2476
94809,5068
29274,6663
225885,3759
29282,118
1340003,5325
1208938,3850
86802,6917
62062,7204
225910,6517
423243,5746
782971,2890
1536639,3809
2126465,3481
193154,7345
376257,6570
160395,4743
4321933,3591
29348,6105
3175081,6280
1274539,2681
4780723,1944
1733303,7112
2192065,4653
225998,2050
520923,4514
2388701,2558
29406,5029
19591907,3822
979693,4987
1798899,4092
127738,2061
62205,7330
10482433,3619
258819,5199
98397,2914
29450,5646
127756,2593
488215,6866
62238,6605
226083,7184
29478,2071
455469,4256
258874,3538
324415,7131
1110854,6392
1504085,6489
29526,6971
1602403,5120
95095,7430
3502969,2028
45970307,1631
29575,3191
5436299,2639
1471379,6889
1569685,6422
193430,4148
2519959,2083
62361,3194
29601,5921
95139,2816
3765157,2876
1209271,5370
634933,257
193479,5133
127946,6959
29645,3224
796835,4897
488433,4473
1078259,4687
324597,6539
1405943,3941
39121913,2472
685055,4300
1569799,6837
13005833,6679
1143818,6255
685069,5321
979982,6299
554001,6737
128018,2973
6485011,1879
29716,6130
390165,3728
390166,3898
488474,6290
160797,7167
881705,6581
226347,1998
357425,2902
291893,2217
226366,6899
62530,4964
29766,5140
185185,6993
1242201,4488
816221,1987
455793,4972
3372149,2778
58651771,1612
146965,7414
33059981,3548
136045,5045
29841,2240
1012894,1792
259233,4819
14742701,2734
259259,5396
3887989,6389
134113,2243
455877,189
8516807,4014
8615117,3606
914641,4377
324818,2775
62678,5182
1176791,7061
226525,5566
310821,4476
161007,6656
2585843,1972
196137,5803
29946,7145
259325,5556
2618629,2011
256215,7053
128271,5043
43225,5717
488733,3741
26998049,1681
1635622,3837
3306801,1761
30015,5887
50459971,3546
6649159,3846
13759819,2625
292175,5629
95571,5753
456025,5592
947546,3886
3339611,2848
30044,6035
2422109,86
62814,4589
292201,2119
390507,7150
521594,4354
927979,3100
4617605,44
1242505,6510
1111443,6746
4319695,1769
1930649,2787
521645,3026
37975471,1632
1013173,5406
30135,5358
157035,4587
1146442,3419
4093379,4562
226765,7172
62930,7088
4729081,3841
1701343,2860
161253,5773
292330,6412
349095,3743
878845,4162
6583811,1787
4224517,6499
62985,7417
5240333,3796
30225,5654
3536405,56
128535,6638
15247367,4208
423453,4594
587301,3748
889778,2841
30258,2588
95795,5478
5830201,6721
5996127,1638
259666,5157
29343331,3987
95830,3763
783959,2161
2750041,7010
2553439,2557
63075,2906
21001829,2624
587366,6508
2618998,1654
1406587,4889
226941,4408
7206529,4015
95874,4170
30340,5974
292485,6775
161414,5228
49140673,1622
30345,4862
292494,3461
521885,6782
128673,2913
620194,4717
1681691,2947
95914,7188
9926323,1824
33978053,1633
63175,3070
4617931,2857
1472207,222
325335,4258
194271,4197
63206,5069
139587,4826
1406703,6803
4486909,3870
37845,2917
620289,177
250838,6571
1190189,6534
96026,2002
456475,2802
30498,7385
11528497,4262
5699369,4650
390963,81
30525,5621
15464257,1875
685906,6731
3929941,1912
980837,1991
391017,4693
489325,2986
4640503,6269
2750321,2677
2586485,6221
489335,6460
30590,7373
1094331,3421
96135,7314
751502,3914
391065,4119
161690,6901
6322079,4278
30628,6082
25065391,3330
8658,5839
7534519,2855
96186,6589
63426,3981
161733,5022
30668,6007
1734605,2751
1341395,1865
456665,4602
128986,5134
2419023,3623
63455,2222
12023777,52
2062306,3829
5592059,2738
620517,1923
1275879,3482
96237,3140
325622,4474
709631,2117
33388541,204
653315,4378
849927,6751
260110,3729
2324495,6480
194579,3058
409262,6410
96278,4412
2816033,2671
30758,2134
1701931,3920
2424499,3700
6387767,2757
63550,5544
292929,6867
17102917,2605
325703,3121
242165,6983
15759439,194
194649,7132
129115,5429
751709,2977
4880485,3615
50127,5437
365585,4822
3078251,66
17201263,6231
653429,2053
16414841,1764
2357381,2084
30855,5293
3271021,4460
653457,4081
30875,2316
1374365,6885
96425,5672
1210547,2103
161975,5643
325822,3742
456909,2034
30932,6047
850135,6535
13957343,2515
7829729,2930
63714,6348
1702115,4457
25983217,1634
260338,7151
11630839,3361
30969,2347
2488577,6484
620806,3935
4467073,4667
3569929,4529
14088461,2525
1964315,7011
129311,2237
9828643,6204
5634343,3806
3537193,5097
424235,7121
358701,7051
70707,5398
3307837,2953
719169,6755
8026447,3586
162129,2064
588115,4737
96596,5978
1014101,3109
2193763,4355
130790,6548
32487,5508
391534,3749
5896579,4868
9828767,1832
8059303,2618
63916,2923
817581,4678
194990,6776
620977,5442
194996,2591
6027707,1723
555458,2764
424390,3644
293335,4804
1964515,3595
129514,4198
31213,126
719345,5110
4585973,4016
817663,5312
391685,4556
21985799,1635
22844503,1682
424473,6529
31262,5466
260642,82
5306917,1666
1604135,6813
1272245,4293
129605,2982
260678,4694
162393,6964
64090,7315
555611,5443
96866,6985
260710,4120
129642,6449
64124,5994
195201,2996
31365,5789
2262957,3659
31372,6077
64141,2256
850586,3483
1014429,3719
64158,4745
1735327,1980
31395,7402
6585001,4491
1243839,1857
326337,5192
6159049,3881
31434,5001
163618,7077
2292433,6575
195286,6868
31450,5615
293595,4303
293601,6461
129766,7133
20413159,1691
97006,4917
64239,5474
228085,5241
97014,6902
38152661,2601
17529601,3823
1982251,232
949003,2160
162578,2092
22772507,3390
136325,5563
5143333,2649
555814,3678
391989,4379
424762,3955
785213,4831
555841,2112
169099,2236
677005,4144
31570,6676
195415,5273
20550799,6194
31581,3241
6224743,2508
228206,5119
60226417,1677
28998521,47
2167957,5113
31625,2311
31635,5829
1571735,3517
97185,7175
1670053,4251
31654,5495
3275695,4017
457653,6758
1702851,4276
2718669,3791
64467,5890
22878,5764
1178589,7012
293854,4519
228327,5174
359414,3959
31746,6998
64515,7389
916487,5015
4291593,3351
687115,3967
2915341,6832
130065,7259
457765,6544
31790,4860
13990963,1636
289289,4846
1834053,6218
2146145,4450
1178709,3596
130134,4260
359513,5445
616975,5590
851037,6322
97375,2274
523365,6291
785519,5334
228475,5606
97405,5265
240149,3175
702658,3504
687242,4672
5635211,2017
490637,5421
442221,7240
195730,4304
195734,6462
31899,2232
654493,3052
851105,4764
64676,6038
588965,4908
3478727,6395
18545843,3610
1211573,5201
818363,4392
3144905,4230
326859,4798
261326,4380
31977,5932
1944103,2761
326895,6760
97526,5215
4619527,3904
43351309,1614
97556,214
64790,7176
294175,2575
687401,5251
425258,1969
228657,4913
35421499,1743
785726,7013
326975,5549
261443,2124
9993545,1637
1244495,3860
884051,4812
32085,5859
2915674,3775
27195,5403
32103,2338
1965417,4018
32110,5064
30998419,1809
32116,6027
1604986,4215
4816253,6742
8077205,2487
5355,5953
785806,3597
621970,3379
424879,5444
228781,2234
2162095,6701
13598129,4050
1310133,3674
5897657,2747
32186,5282
3308987,5105
2630257,3911
32190,6881
10354117,60
4586959,1906
818662,3699
196075,5637
6979061,4658
3374585,3664
1801751,4537
130585,5352
5382,5924
1277479,2888
65065,5076
163370,3964
6454835,3570
6290999,6251
365835,1871
8420933,4094
1310278,4019
425546,4143
2011373,3916
10850,5660
29916757,2473
163415,5446
196185,6547
261725,3065
10578533,3386
163438,7349
3997295,6212
1900145,6401
3833459,4432
32375,2288
22998827,1810
2686607,6284
884374,3715
76840601,23
3800741,3492
1539755,6260
4631155,3438
523957,3118
720575,5529
65219,271
130758,6762
1053987,3503
3243737,1849
17596127,4261
98022,3965
11173607,2526
2031337,6732
3997418,1639
102557,2244
327635,6928
1900283,6816
98049,5447
824619,6886
589589,7162
32538,7322
2424603,2730
52307677,2490
1769261,3032
1507121,4296
25788221,2503
65348,2825
32585,2252
13642381,4209
1245013,6893
65366,5448
1113959,6908
3735407,2768
425845,1934
229245,7068
163713,2147
775489,5235
851851,6918
458643,2950
720797,5161
294814,7241
786335,4177
163761,5054
556985,6626
458689,5381
32708,6051
32718,6643
9732047,3794
1834963,4590
32725,5730
131043,3049
196581,6929
3866599,7015
131054,6930
4554737,4485
12713977,4647